<?xml version="1.0" encoding="UTF-8" standalone="no"?>
<!-- Created with Inkscape (http://www.inkscape.org/) -->

<svg
   version="1.1"
   id="svg2"
   width="707.30933"
   height="707.30664"
   viewBox="0 0 707.30932 707.30663"
   sodipodi:docname="buttonPlay.svg"
   inkscape:version="1.2-alpha1 (b6a15bbbed, 2022-02-23)"
   inkscape:export-filename="G:\My Drive\inria\0000-00-intern-alice-ipnv\ipn-v-icons\buttonPlay.png"
   inkscape:export-xdpi="100"
   inkscape:export-ydpi="100"
   xmlns:inkscape="http://www.inkscape.org/namespaces/inkscape"
   xmlns:sodipodi="http://sodipodi.sourceforge.net/DTD/sodipodi-0.dtd"
   xmlns="http://www.w3.org/2000/svg"
   xmlns:svg="http://www.w3.org/2000/svg">
  <defs
     id="defs6" />
  <sodipodi:namedview
     id="namedview4"
     pagecolor="#ffffff"
     bordercolor="#000000"
     borderopacity="0.25"
     inkscape:showpageshadow="2"
     inkscape:pageopacity="0.0"
     inkscape:pagecheckerboard="0"
     inkscape:deskcolor="#d1d1d1"
     inkscape:pageshadow="2"
     showgrid="false"
     inkscape:zoom="0.58623588"
     inkscape:cx="451.18357"
     inkscape:cy="385.51035"
     inkscape:window-width="1920"
     inkscape:window-height="1129"
     inkscape:window-x="-8"
     inkscape:window-y="-8"
     inkscape:window-maximized="1"
     inkscape:current-layer="g8" />
  <g
     id="g8"
     inkscape:groupmode="layer"
     inkscape:label="ink_ext_XXXXXX"
     transform="matrix(1.3333333,0,0,-1.3333333,-343.09466,2463.0266)">
    <path
       d="m 522.562,1802.79 c -121.727,0 -220.759,-99.03 -220.759,-220.76 0,-121.73 99.032,-220.76 220.759,-220.76 121.727,0 220.759,99.03 220.759,220.76 0,121.73 -99.032,220.76 -220.759,220.76 z m 0,-486 c -70.848,0 -137.456,27.59 -187.554,77.69 -50.097,50.09 -77.687,116.7 -77.687,187.55 0,70.85 27.59,137.46 77.687,187.55 50.098,50.1 116.706,77.69 187.554,77.69 70.848,0 137.456,-27.59 187.553,-77.69 50.098,-50.09 77.688,-116.7 77.688,-187.55 0,-70.85 -27.59,-137.46 -77.688,-187.55 -50.097,-50.1 -116.705,-77.69 -187.553,-77.69"
       style="fill:#aaeeff;fill-opacity:1;fill-rule:nonzero;stroke:none;stroke-width:0.1"
       id="path16" />
    <path
       d="m 411.472,1689.73 274.18,-107.7 -274.18,-107.7 z"
       style="fill:#aaeeff;fill-opacity:1;fill-rule:nonzero;stroke:none;stroke-width:0.1"
       id="path18" />
  </g>
</svg>
