##########,##########,##########,##########,##########,##########,##########,##########,,,
# Landers,,,,,,,,,,
# NodeType,NodeName,Id,CentralObject,Latitude,Longitude,Altitude,Rules,,,
##########,##########,##########,##########,##########,##########,##########,##########,,,
# 3) Earth Ground Stations,,,,,,,,,,
Lander,Cebreros,301,Earth,40.45,-4.367,100,,,,
Lander,New-Norcia,302,Earth,-31.048,116.191,100,,,,    
Lander,Malargue,303,Earth,-35.7761111,-69.3983333,100,,,,  
##########,##########,##########,##########,##########,##########,##########,##########,##########,##########,##########
# Orbiters ,,,,,,,,,,
# NodeType,NodeName,Id,CentralObject,SemMajAx,Inclination,Eccentricity,LongAscNode,ArgOfPer,MeanAnomaly,
##########,##########,##########,##########,##########,##########,##########,##########,##########,##########,##########
# 4) Mars Orbiters,,,,,,,,,,
Lander,Opportunity (MER-B),401,Mars,-1.9462,354.4734,100,,,,
Lander,Curiosity (MSL),402,Mars,-4.5895,137.4417,100,,,,
Lander,Perseverance (Mars 2020),403,Mars,18.4447,77.4508,100,,,,
# 4) Mars Landers,,,,,,,,,,
Orbiter,Mars Odyssey (ODY),451,Mars,400,93.1,0,0,0,0,
Orbiter,Mars Express (MEX),452,Mars,10100,86.3,0.0151,90,90,90,
#Orbiter,Mars Recon. Orbiter (MRO),453,Mars,320,93,0.0001,180,180,180,
Orbiter,MAVEN (MVN),454,Mars,6200,75,0.35,270,270,270,
